\relax 
\providecommand\hyper@newdestlabel[2]{}
\providecommand\HyperFirstAtBeginDocument{\AtBeginDocument}
\HyperFirstAtBeginDocument{\ifx\hyper@anchor\@undefined
\global\let\oldcontentsline\contentsline
\gdef\contentsline#1#2#3#4{\oldcontentsline{#1}{#2}{#3}}
\global\let\oldnewlabel\newlabel
\gdef\newlabel#1#2{\newlabelxx{#1}#2}
\gdef\newlabelxx#1#2#3#4#5#6{\oldnewlabel{#1}{{#2}{#3}}}
\AtEndDocument{\ifx\hyper@anchor\@undefined
\let\contentsline\oldcontentsline
\let\newlabel\oldnewlabel
\fi}
\fi}
\global\let\hyper@last\relax 
\gdef\HyperFirstAtBeginDocument#1{#1}
\providecommand\HyField@AuxAddToFields[1]{}
\providecommand\HyField@AuxAddToCoFields[2]{}
\citation{autodriving_1}
\citation{autodriving_2}
\citation{carcrash}
\citation{autodriving_2}
\citation{randomwalk}
\@writefile{toc}{\contentsline {section}{\numberline {I}Introduction}{1}{section.1}}
\@writefile{toc}{\contentsline {section}{\numberline {II}What is needed for Autonomous Driving?}{1}{section.2}}
\@writefile{toc}{\contentsline {section}{\numberline {III}Creating the City Scene}{1}{section.3}}
\@writefile{toc}{\contentsline {subsection}{\numberline {\unhbox \voidb@x \hbox {III-A}}The Generation of a Street}{1}{subsection.3.1}}
\citation{objrec}
\@writefile{lof}{\contentsline {figure}{\numberline {1}{\ignorespaces Two paths creating a four-way crossing}}{2}{figure.1}}
\newlabel{fig:crossingpaths}{{1}{2}{Two paths creating a four-way crossing}{figure.1}{}}
\@writefile{lof}{\contentsline {figure}{\numberline {2}{\ignorespaces An example of our randomly generated street grid}}{2}{figure.2}}
\newlabel{fig:streetpath}{{2}{2}{An example of our randomly generated street grid}{figure.2}{}}
\@writefile{toc}{\contentsline {subsection}{\numberline {\unhbox \voidb@x \hbox {III-B}}Building the Buildings}{2}{subsection.3.2}}
\@writefile{lof}{\contentsline {figure}{\numberline {3}{\ignorespaces The previously shown street grid now with randomly placed buildings}}{2}{figure.3}}
\newlabel{fig:buildings}{{3}{2}{The previously shown street grid now with randomly placed buildings}{figure.3}{}}
\@writefile{toc}{\contentsline {subsection}{\numberline {\unhbox \voidb@x \hbox {III-C}}Letting the Cars drive}{2}{subsection.3.3}}
\@writefile{toc}{\contentsline {subsection}{\numberline {\unhbox \voidb@x \hbox {III-D}}Final Steps}{2}{subsection.3.4}}
\@writefile{lof}{\contentsline {figure}{\numberline {4}{\ignorespaces Cars are now driving in the scene and rotate while moving according to the tiles}}{3}{figure.4}}
\newlabel{fig:cars}{{4}{3}{Cars are now driving in the scene and rotate while moving according to the tiles}{figure.4}{}}
\@writefile{toc}{\contentsline {section}{\numberline {IV}Basics for Autonomous Driving}{3}{section.4}}
\@writefile{toc}{\contentsline {subsection}{\numberline {\unhbox \voidb@x \hbox {IV-A}}Edge Detection for Object Recognition}{3}{subsection.4.1}}
\@writefile{toc}{\contentsline {subsection}{\numberline {\unhbox \voidb@x \hbox {IV-B}}Corner Detection}{3}{subsection.4.2}}
\@writefile{toc}{\contentsline {section}{\numberline {V}Further Work}{3}{section.5}}
\bibcite{autodriving_1}{1}
\bibcite{autodriving_2}{2}
\bibcite{carcrash}{3}
\bibcite{objref}{4}
\bibcite{randomwalk}{5}
\bibcite{objrec}{6}
\@writefile{toc}{\contentsline {section}{References}{4}{section*.1}}
