\BOOKMARK [1][-]{section.1}{Introduction}{}% 1
\BOOKMARK [1][-]{section.2}{What is needed for Autonomous Driving?}{}% 2
\BOOKMARK [1][-]{section.3}{Creating the City Scene}{}% 3
\BOOKMARK [2][-]{subsection.3.1}{The Generation of a Street}{section.3}% 4
\BOOKMARK [2][-]{subsection.3.2}{Building the Buildings}{section.3}% 5
\BOOKMARK [2][-]{subsection.3.3}{Letting the Cars drive}{section.3}% 6
\BOOKMARK [2][-]{subsection.3.4}{Final Steps}{section.3}% 7
\BOOKMARK [1][-]{section.4}{Basics for Autonomous Driving}{}% 8
\BOOKMARK [2][-]{subsection.4.1}{Edge Detection for Object Recognition}{section.4}% 9
\BOOKMARK [2][-]{subsection.4.2}{Corner Detection}{section.4}% 10
\BOOKMARK [1][-]{section.5}{Further Work}{}% 11
\BOOKMARK [1][-]{section*.1}{References}{}% 12
