\relax 
\providecommand\hyper@newdestlabel[2]{}
\providecommand\HyperFirstAtBeginDocument{\AtBeginDocument}
\HyperFirstAtBeginDocument{\ifx\hyper@anchor\@undefined
\global\let\oldcontentsline\contentsline
\gdef\contentsline#1#2#3#4{\oldcontentsline{#1}{#2}{#3}}
\global\let\oldnewlabel\newlabel
\gdef\newlabel#1#2{\newlabelxx{#1}#2}
\gdef\newlabelxx#1#2#3#4#5#6{\oldnewlabel{#1}{{#2}{#3}}}
\AtEndDocument{\ifx\hyper@anchor\@undefined
\let\contentsline\oldcontentsline
\let\newlabel\oldnewlabel
\fi}
\fi}
\global\let\hyper@last\relax 
\gdef\HyperFirstAtBeginDocument#1{#1}
\providecommand\HyField@AuxAddToFields[1]{}
\providecommand\HyField@AuxAddToCoFields[2]{}
\@nameuse{bbl@beforestart}
\abx@aux@refcontext{nty/global//global/global}
\@writefile{toc}{\boolfalse {citerequest}\boolfalse {citetracker}\boolfalse {pagetracker}\boolfalse {backtracker}\relax }
\@writefile{lof}{\boolfalse {citerequest}\boolfalse {citetracker}\boolfalse {pagetracker}\boolfalse {backtracker}\relax }
\@writefile{lot}{\boolfalse {citerequest}\boolfalse {citetracker}\boolfalse {pagetracker}\boolfalse {backtracker}\relax }
\babel@aux{english}{}
\@writefile{nav}{\defcounter {refsection}{0}\relax }\@writefile{nav}{\headcommand {\slideentry {0}{0}{1}{1/1}{}{0}}}
\@writefile{nav}{\defcounter {refsection}{0}\relax }\@writefile{nav}{\headcommand {\beamer@framepages {1}{1}}}
\@writefile{nav}{\defcounter {refsection}{0}\relax }\@writefile{nav}{\headcommand {\slideentry {0}{0}{2}{2/2}{}{0}}}
\@writefile{nav}{\defcounter {refsection}{0}\relax }\@writefile{nav}{\headcommand {\beamer@framepages {2}{2}}}
\abx@aux@cite{noauthor_5g_2019}
\abx@aux@segm{0}{0}{noauthor_5g_2019}
\abx@aux@cite{noauthor_5g_2019}
\abx@aux@segm{0}{0}{noauthor_5g_2019}
\@writefile{toc}{\defcounter {refsection}{0}\relax }\@writefile{toc}{\beamer@sectionintoc {1}{Motivation}{3}{0}{1}}
\@writefile{nav}{\defcounter {refsection}{0}\relax }\@writefile{nav}{\headcommand {\beamer@sectionpages {1}{2}}}
\@writefile{nav}{\defcounter {refsection}{0}\relax }\@writefile{nav}{\headcommand {\beamer@subsectionpages {1}{2}}}
\@writefile{nav}{\defcounter {refsection}{0}\relax }\@writefile{nav}{\headcommand {\sectionentry {1}{Motivation}{3}{Motivation}{0}}}
\@writefile{nav}{\defcounter {refsection}{0}\relax }\@writefile{nav}{\headcommand {\slideentry {1}{0}{1}{3/3}{}{0}}}
\@writefile{nav}{\defcounter {refsection}{0}\relax }\@writefile{nav}{\headcommand {\beamer@framepages {3}{3}}}
\abx@aux@cite{intelsensor}
\abx@aux@segm{0}{0}{intelsensor}
\abx@aux@cite{intelsensor}
\abx@aux@segm{0}{0}{intelsensor}
\@writefile{toc}{\defcounter {refsection}{0}\relax }\@writefile{toc}{\beamer@sectionintoc {2}{Autonomous Driving}{4}{0}{2}}
\@writefile{nav}{\defcounter {refsection}{0}\relax }\@writefile{nav}{\headcommand {\beamer@sectionpages {3}{3}}}
\@writefile{nav}{\defcounter {refsection}{0}\relax }\@writefile{nav}{\headcommand {\beamer@subsectionpages {3}{3}}}
\@writefile{nav}{\defcounter {refsection}{0}\relax }\@writefile{nav}{\headcommand {\sectionentry {2}{Autonomous Driving}{4}{Autonomous Driving}{0}}}
\@writefile{nav}{\defcounter {refsection}{0}\relax }\@writefile{nav}{\headcommand {\slideentry {2}{0}{1}{4/4}{}{0}}}
\@writefile{nav}{\defcounter {refsection}{0}\relax }\@writefile{nav}{\headcommand {\beamer@framepages {4}{4}}}
\abx@aux@cite{delk_video_2018}
\abx@aux@segm{0}{0}{delk_video_2018}
\abx@aux@cite{6613480}
\abx@aux@segm{0}{0}{6613480}
\abx@aux@cite{6613480}
\abx@aux@segm{0}{0}{6613480}
\@writefile{nav}{\defcounter {refsection}{0}\relax }\@writefile{nav}{\headcommand {\slideentry {2}{0}{2}{5/5}{}{0}}}
\@writefile{nav}{\defcounter {refsection}{0}\relax }\@writefile{nav}{\headcommand {\beamer@framepages {5}{5}}}
\abx@aux@cite{weisstein_random_nodate}
\abx@aux@segm{0}{0}{weisstein_random_nodate}
\abx@aux@cite{weisstein_random_nodate}
\abx@aux@segm{0}{0}{weisstein_random_nodate}
\@writefile{toc}{\defcounter {refsection}{0}\relax }\@writefile{toc}{\beamer@sectionintoc {3}{Project: Random City Scene}{6}{0}{3}}
\@writefile{nav}{\defcounter {refsection}{0}\relax }\@writefile{nav}{\headcommand {\beamer@sectionpages {4}{5}}}
\@writefile{nav}{\defcounter {refsection}{0}\relax }\@writefile{nav}{\headcommand {\beamer@subsectionpages {4}{5}}}
\@writefile{nav}{\defcounter {refsection}{0}\relax }\@writefile{nav}{\headcommand {\sectionentry {3}{Project: Random City Scene}{6}{Project: Random City Scene}{0}}}
\@writefile{toc}{\defcounter {refsection}{0}\relax }\@writefile{toc}{\beamer@subsectionintoc {3}{1}{Random Streets}{6}{0}{3}}
\@writefile{nav}{\defcounter {refsection}{0}\relax }\@writefile{nav}{\headcommand {\beamer@subsectionpages {6}{5}}}
\@writefile{nav}{\defcounter {refsection}{0}\relax }\@writefile{nav}{\headcommand {\beamer@subsectionentry {0}{3}{1}{6}{Random Streets}}}
\@writefile{nav}{\defcounter {refsection}{0}\relax }\@writefile{nav}{\headcommand {\slideentry {3}{1}{1}{6/6}{Random Streets}{0}}}
\@writefile{nav}{\defcounter {refsection}{0}\relax }\@writefile{nav}{\headcommand {\beamer@framepages {6}{6}}}
\@writefile{toc}{\defcounter {refsection}{0}\relax }\@writefile{toc}{\beamer@subsectionintoc {3}{2}{Buildings}{7}{0}{3}}
\@writefile{nav}{\defcounter {refsection}{0}\relax }\@writefile{nav}{\headcommand {\beamer@subsectionpages {6}{6}}}
\@writefile{nav}{\defcounter {refsection}{0}\relax }\@writefile{nav}{\headcommand {\beamer@subsectionentry {0}{3}{2}{7}{Buildings}}}
\@writefile{nav}{\defcounter {refsection}{0}\relax }\@writefile{nav}{\headcommand {\slideentry {3}{2}{1}{7/7}{Buildings}{0}}}
\@writefile{nav}{\defcounter {refsection}{0}\relax }\@writefile{nav}{\headcommand {\beamer@framepages {7}{7}}}
\@writefile{toc}{\defcounter {refsection}{0}\relax }\@writefile{toc}{\beamer@subsectionintoc {3}{3}{Driving Cars}{8}{0}{3}}
\@writefile{nav}{\defcounter {refsection}{0}\relax }\@writefile{nav}{\headcommand {\beamer@subsectionpages {7}{7}}}
\@writefile{nav}{\defcounter {refsection}{0}\relax }\@writefile{nav}{\headcommand {\beamer@subsectionentry {0}{3}{3}{8}{Driving Cars}}}
\newlabel{foot:web}{{1}{8}{Driving Cars}{Doc-Start}{}}
\@writefile{snm}{\defcounter {refsection}{0}\relax }\@writefile{snm}{\beamer@slide {foot:web}{8}}
\@writefile{nav}{\defcounter {refsection}{0}\relax }\@writefile{nav}{\headcommand {\slideentry {3}{3}{1}{8/8}{Driving Cars}{0}}}
\@writefile{nav}{\defcounter {refsection}{0}\relax }\@writefile{nav}{\headcommand {\beamer@framepages {8}{8}}}
\@writefile{nav}{\defcounter {refsection}{0}\relax }\@writefile{nav}{\headcommand {\slideentry {3}{3}{2}{9/9}{Driving Cars}{0}}}
\@writefile{nav}{\defcounter {refsection}{0}\relax }\@writefile{nav}{\headcommand {\beamer@framepages {9}{9}}}
\abx@aux@cite{khanna_harris_2019}
\abx@aux@segm{0}{0}{khanna_harris_2019}
\abx@aux@cite{khanna_harris_2019}
\abx@aux@segm{0}{0}{khanna_harris_2019}
\@writefile{toc}{\defcounter {refsection}{0}\relax }\@writefile{toc}{\beamer@sectionintoc {4}{AD Basics}{10}{0}{4}}
\@writefile{nav}{\defcounter {refsection}{0}\relax }\@writefile{nav}{\headcommand {\beamer@sectionpages {6}{9}}}
\@writefile{nav}{\defcounter {refsection}{0}\relax }\@writefile{nav}{\headcommand {\beamer@subsectionpages {8}{9}}}
\@writefile{nav}{\defcounter {refsection}{0}\relax }\@writefile{nav}{\headcommand {\sectionentry {4}{AD Basics}{10}{AD Basics}{0}}}
\@writefile{nav}{\defcounter {refsection}{0}\relax }\@writefile{nav}{\headcommand {\slideentry {4}{0}{1}{10/10}{}{0}}}
\@writefile{nav}{\defcounter {refsection}{0}\relax }\@writefile{nav}{\headcommand {\beamer@framepages {10}{10}}}
\@writefile{toc}{\defcounter {refsection}{0}\relax }\@writefile{toc}{\beamer@sectionintoc {5}{Conclusion}{11}{0}{5}}
\@writefile{nav}{\defcounter {refsection}{0}\relax }\@writefile{nav}{\headcommand {\beamer@sectionpages {10}{10}}}
\@writefile{nav}{\defcounter {refsection}{0}\relax }\@writefile{nav}{\headcommand {\beamer@subsectionpages {10}{10}}}
\@writefile{nav}{\defcounter {refsection}{0}\relax }\@writefile{nav}{\headcommand {\sectionentry {5}{Conclusion}{11}{Conclusion}{0}}}
\@writefile{nav}{\defcounter {refsection}{0}\relax }\@writefile{nav}{\headcommand {\slideentry {5}{0}{1}{11/11}{}{0}}}
\@writefile{nav}{\defcounter {refsection}{0}\relax }\@writefile{nav}{\headcommand {\beamer@framepages {11}{11}}}
\@writefile{nav}{\defcounter {refsection}{0}\relax }\@writefile{nav}{\headcommand {\beamer@sectionpages {11}{11}}}
\@writefile{nav}{\defcounter {refsection}{0}\relax }\@writefile{nav}{\headcommand {\beamer@subsectionpages {11}{11}}}
\@writefile{nav}{\defcounter {refsection}{0}\relax }\@writefile{nav}{\headcommand {\sectionentry {6}{References}{12}{References}{0}}}
\@writefile{nav}{\defcounter {refsection}{0}\relax }\@writefile{nav}{\headcommand {\slideentry {6}{0}{0}{12/12}{}{0}}}
\@writefile{nav}{\defcounter {refsection}{0}\relax }\@writefile{nav}{\headcommand {\beamer@framepages {12}{12}}}
\@writefile{nav}{\headcommand {\beamer@partpages {1}{12}}}
\@writefile{nav}{\headcommand {\beamer@subsectionpages {11}{12}}}
\@writefile{nav}{\headcommand {\beamer@sectionpages {11}{12}}}
\@writefile{nav}{\headcommand {\beamer@documentpages {12}}}
\@writefile{nav}{\headcommand {\gdef \inserttotalframenumber {12}}}
\abx@aux@refcontextdefaultsdone
\abx@aux@defaultrefcontext{0}{delk_video_2018}{nty/global//global/global}
\abx@aux@defaultrefcontext{0}{6613480}{nty/global//global/global}
\abx@aux@defaultrefcontext{0}{khanna_harris_2019}{nty/global//global/global}
\abx@aux@defaultrefcontext{0}{intelsensor}{nty/global//global/global}
\abx@aux@defaultrefcontext{0}{noauthor_5g_2019}{nty/global//global/global}
\abx@aux@defaultrefcontext{0}{weisstein_random_nodate}{nty/global//global/global}
