\boolfalse {citerequest}\boolfalse {citetracker}\boolfalse {pagetracker}\boolfalse {backtracker}\relax 
\babel@toc {english}{}
\defcounter {refsection}{0}\relax 
\beamer@sectionintoc {1}{Motivation}{3}{0}{1}
\defcounter {refsection}{0}\relax 
\beamer@sectionintoc {2}{Autonomous Driving}{4}{0}{2}
\defcounter {refsection}{0}\relax 
\beamer@sectionintoc {3}{Project: Random City Scene}{6}{0}{3}
\defcounter {refsection}{0}\relax 
\beamer@subsectionintoc {3}{1}{Random Streets}{6}{0}{3}
\defcounter {refsection}{0}\relax 
\beamer@subsectionintoc {3}{2}{Buildings}{7}{0}{3}
\defcounter {refsection}{0}\relax 
\beamer@subsectionintoc {3}{3}{Driving Cars}{8}{0}{3}
\defcounter {refsection}{0}\relax 
\beamer@sectionintoc {4}{AD Basics}{10}{0}{4}
\defcounter {refsection}{0}\relax 
\beamer@sectionintoc {5}{Conclusion}{11}{0}{5}
