% $ biblatex auxiliary file $
% $ biblatex bbl format version 3.1 $
% Do not modify the above lines!
%
% This is an auxiliary file used by the 'biblatex' package.
% This file may safely be deleted. It will be recreated by
% biber as required.
%
\begingroup
\makeatletter
\@ifundefined{ver@biblatex.sty}
  {\@latex@error
     {Missing 'biblatex' package}
     {The bibliography requires the 'biblatex' package.}
      \aftergroup\endinput}
  {}
\endgroup


\refsection{0}
  \datalist[entry]{nty/global//global/global}
    \entry{delk_video_2018}{online}{}
      \name{author}{1}{}{%
        {{hash=d2e7a08f95cb97f91853f6177052574d}{%
           family={Delk},
           familyi={D\bibinitperiod},
           given={Josh},
           giveni={J\bibinitperiod}}}%
      }
      \strng{namehash}{d2e7a08f95cb97f91853f6177052574d}
      \strng{fullhash}{d2e7a08f95cb97f91853f6177052574d}
      \strng{bibnamehash}{d2e7a08f95cb97f91853f6177052574d}
      \strng{authorbibnamehash}{d2e7a08f95cb97f91853f6177052574d}
      \strng{authornamehash}{d2e7a08f95cb97f91853f6177052574d}
      \strng{authorfullhash}{d2e7a08f95cb97f91853f6177052574d}
      \field{sortinit}{D}
      \field{sortinithash}{c438b3d5d027251ba63f5ed538d98af5}
      \field{labelnamesource}{author}
      \field{labeltitlesource}{title}
      \field{abstract}{Police in Arizona released video footage on Wednesday taken in a self-driving Uber vehicle that struck and killed a pedestrian this week.}
      \field{day}{21}
      \field{langid}{english}
      \field{month}{3}
      \field{note}{Library Catalog: thehill.com}
      \field{title}{Video released by police shows view from inside self-driving car before fatal crash}
      \field{titleaddon}{{TheHill}}
      \field{type}{Text}
      \field{urlday}{7}
      \field{urlmonth}{3}
      \field{urlyear}{2020}
      \field{year}{2018}
      \field{dateera}{ce}
      \field{urldateera}{ce}
      \verb{file}
      \verb Snapshot:C\:\\Users\\Sascha\\Zotero\\storage\\XDLILIPR\\379656-video-released-by-police-shows-view-from-inside-self-driving-car-before.html:text/html
      \endverb
      \verb{urlraw}
      \verb https://thehill.com/policy/technology/379656-video-released-by-police-shows-view-from-inside-self-driving-car-before
      \endverb
      \verb{url}
      \verb https://thehill.com/policy/technology/379656-video-released-by-police-shows-view-from-inside-self-driving-car-before
      \endverb
      \warn{\item Datamodel: Entry 'delk_video_2018' (references.bib): Invalid field 'type' for entrytype 'online'}
    \endentry
    \entry{6613480}{article}{}
      \name{author}{5}{}{%
        {{hash=017cd7b379e94d03c22b32da5dcee445}{%
           family={{Geiger}},
           familyi={G\bibinitperiod},
           given={A.},
           giveni={A\bibinitperiod}}}%
        {{hash=ee714b0037597d6b5d2acea6b24ac359}{%
           family={{Lauer}},
           familyi={L\bibinitperiod},
           given={M.},
           giveni={M\bibinitperiod}}}%
        {{hash=9df068d1cb4d9ad0fba2215c48403255}{%
           family={{Wojek}},
           familyi={W\bibinitperiod},
           given={C.},
           giveni={C\bibinitperiod}}}%
        {{hash=9dee3559bb84e64b240c89d115d18779}{%
           family={{Stiller}},
           familyi={S\bibinitperiod},
           given={C.},
           giveni={C\bibinitperiod}}}%
        {{hash=c4d3341061768ff136f92051e00797aa}{%
           family={{Urtasun}},
           familyi={U\bibinitperiod},
           given={R.},
           giveni={R\bibinitperiod}}}%
      }
      \strng{namehash}{fa55fd11c4a59ccd74cc830c7779f86b}
      \strng{fullhash}{c887ced5385d28f99046e60375d5c1d5}
      \strng{bibnamehash}{fa55fd11c4a59ccd74cc830c7779f86b}
      \strng{authorbibnamehash}{fa55fd11c4a59ccd74cc830c7779f86b}
      \strng{authornamehash}{fa55fd11c4a59ccd74cc830c7779f86b}
      \strng{authorfullhash}{c887ced5385d28f99046e60375d5c1d5}
      \field{sortinit}{G}
      \field{sortinithash}{62eb2aa29549e4fdbd3cb154ec5711cb}
      \field{labelnamesource}{author}
      \field{labeltitlesource}{title}
      \field{issn}{1939-3539}
      \field{journaltitle}{IEEE Transactions on Pattern Analysis and Machine Intelligence}
      \field{month}{5}
      \field{number}{5}
      \field{title}{3D Traffic Scene Understanding From Movable Platforms}
      \field{volume}{36}
      \field{year}{2014}
      \field{pages}{1012\bibrangedash 1025}
      \range{pages}{14}
      \verb{doi}
      \verb 10.1109/TPAMI.2013.185
      \endverb
      \keyw{image sequences;object detection;object tracking;road traffic;traffic engineering computing;video signal processing;3D traffic scene understanding;movable platforms;probabilistic generative model;multiobject traffic scene understanding;3D scene layout;object location;object orientation;scene topology;scene geometry;traffic activities;video sequences;visual cues;vehicle tracklet;vanishing points;semantic scene labels;scene flow;occupancy grid;object detection;cluttered urban environments;Roads;Vehicles;Layout;Three-dimensional displays;Semantics;Splines (mathematics);Hidden Markov models;Autonomous vehicles;Scene Analysis;Image Processing and Computer Vision;Robotics;3D scene understanding;autonomous driving;3D scene layout estimation}
    \endentry
    \entry{khanna_harris_2019}{online}{}
      \name{author}{1}{}{%
        {{hash=26e0f5498ce7fe2664bf356e0c1237c1}{%
           family={Khanna},
           familyi={K\bibinitperiod},
           given={Piyush},
           giveni={P\bibinitperiod}}}%
      }
      \strng{namehash}{26e0f5498ce7fe2664bf356e0c1237c1}
      \strng{fullhash}{26e0f5498ce7fe2664bf356e0c1237c1}
      \strng{bibnamehash}{26e0f5498ce7fe2664bf356e0c1237c1}
      \strng{authorbibnamehash}{26e0f5498ce7fe2664bf356e0c1237c1}
      \strng{authornamehash}{26e0f5498ce7fe2664bf356e0c1237c1}
      \strng{authorfullhash}{26e0f5498ce7fe2664bf356e0c1237c1}
      \field{sortinit}{K}
      \field{sortinithash}{d3edc18d54b9438a72c24c925bfb38f4}
      \field{labelnamesource}{author}
      \field{labeltitlesource}{title}
      \field{abstract}{Explore how machines “see” the world around us!}
      \field{day}{23}
      \field{langid}{english}
      \field{month}{11}
      \field{note}{Library Catalog: medium.com}
      \field{title}{Harris Corner Detector-an Overview of the Original Paper}
      \field{titleaddon}{Medium}
      \field{urlday}{9}
      \field{urlmonth}{3}
      \field{urlyear}{2020}
      \field{year}{2019}
      \field{dateera}{ce}
      \field{urldateera}{ce}
      \verb{file}
      \verb Snapshot:C\:\\Users\\Sascha\\Zotero\\storage\\8NHPJD4Q\\harris-corner-detector-an-overview-of-the-original-paper-cf20c502ab0f.html:text/html
      \endverb
      \verb{urlraw}
      \verb https://medium.com/swlh/harris-corner-detector-an-overview-of-the-original-paper-cf20c502ab0f
      \endverb
      \verb{url}
      \verb https://medium.com/swlh/harris-corner-detector-an-overview-of-the-original-paper-cf20c502ab0f
      \endverb
    \endentry
    \entry{intelsensor}{online}{}
      \field{sortinit}{S}
      \field{sortinithash}{c319cff79d99c853d775f88277d4e45f}
      \field{labeltitlesource}{title}
      \field{abstract}{One of the most basic – and challenging – building blocks of an autonomous vehicle system is the ability to detect and classify objects. A vehicle must be able to accurately assess its surroundings before safely adjusting to traffic, roadway regulations or obstacles. The high-accuracy sensors inside advanced driver assistance systems ({ADAS}) are saving lives … Continued}
      \field{langid}{german}
      \field{note}{Library Catalog: newsroom.intel.de Section: Produkte}
      \field{title}{Sensors – the Eyes and Ears of Autonomous Vehicles}
      \field{titleaddon}{Intel Newsroom | Deutschland}
      \field{urlday}{7}
      \field{urlmonth}{3}
      \field{urlyear}{2020}
      \field{year}{2018}
      \field{dateera}{ce}
      \field{urldateera}{ce}
      \verb{file}
      \verb Snapshot:C\:\\Users\\Sascha\\Zotero\\storage\\XSXRTJ8S\\sensors-the-eyes-and-ears-of-autonomous-vehicles.html:text/html
      \endverb
      \verb{urlraw}
      \verb https://newsroom.intel.de/news/sensors-the-eyes-and-ears-of-autonomous-vehicles/
      \endverb
      \verb{url}
      \verb https://newsroom.intel.de/news/sensors-the-eyes-and-ears-of-autonomous-vehicles/
      \endverb
    \endentry
    \entry{noauthor_5g_2019}{online}{}
      \name{author}{1}{}{%
        {{hash=418f1a2df19c4d86667360b00ef8fbe8}{%
           family={Shankland},
           familyi={S\bibinitperiod},
           given={Stephen},
           giveni={S\bibinitperiod}}}%
      }
      \strng{namehash}{418f1a2df19c4d86667360b00ef8fbe8}
      \strng{fullhash}{418f1a2df19c4d86667360b00ef8fbe8}
      \strng{bibnamehash}{418f1a2df19c4d86667360b00ef8fbe8}
      \strng{authorbibnamehash}{418f1a2df19c4d86667360b00ef8fbe8}
      \strng{authornamehash}{418f1a2df19c4d86667360b00ef8fbe8}
      \strng{authorfullhash}{418f1a2df19c4d86667360b00ef8fbe8}
      \field{sortinit}{S}
      \field{sortinithash}{c319cff79d99c853d775f88277d4e45f}
      \field{labelnamesource}{author}
      \field{labeltitlesource}{title}
      \field{abstract}{A new technology that will run on soon-to-launch 5G networks promises to give self-driving cars another advanced skill: the ability to talk with one another. C-V2X, a communications technology using the same 5G networks coming to our phones, will allow vehicles to communicate wirelessly with each other, with traffic signals and with other roadside gear, improving both functionality and safety. The technology initially should help conventionally driven cars — for example, warning you about collision risks or icy roads. But it’ll really shine by making autonomous vehicles more capable and thus more practical, advocates say. C-V2X will unlock the full potential of self-driving technology by adding an additional sense. C-V2X is set to overtake a two-decade-old effort called Dedicated Short-Range Communications ({DSRC}) that achieved only scattered success. V2X refers to vehicles communicating with everything — more than just vehicle to vehicle (V2V), vehicle to infrastructure (V2I) or vehicle to pedestrian (V2P). The C means communication happens on the same cellular network technology our phones use.}
      \field{day}{28}
      \field{langid}{american}
      \field{month}{8}
      \field{note}{Library Catalog: www.pioneeringminds.com Section: Frontiers}
      \field{title}{5G Makes Self-Driving Cars Smarter And Commutes Safer}
      \field{titleaddon}{Pioneering Minds}
      \field{urlday}{7}
      \field{urlmonth}{3}
      \field{urlyear}{2020}
      \field{year}{2019}
      \field{dateera}{ce}
      \field{urldateera}{ce}
      \verb{file}
      \verb Snapshot:C\:\\Users\\Sascha\\Zotero\\storage\\U5JFSR6Q\\5g-makes-self-driving-cars-smarter-commutes-safer.html:text/html
      \endverb
      \verb{urlraw}
      \verb https://www.pioneeringminds.com/5g-makes-self-driving-cars-smarter-commutes-safer/
      \endverb
      \verb{url}
      \verb https://www.pioneeringminds.com/5g-makes-self-driving-cars-smarter-commutes-safer/
      \endverb
    \endentry
    \entry{weisstein_random_nodate}{online}{}
      \name{author}{1}{}{%
        {{hash=819197bfeff32a3f58d49b2a3eb0a580}{%
           family={Weisstein},
           familyi={W\bibinitperiod},
           given={Eric\bibnamedelima W.},
           giveni={E\bibinitperiod\bibinitdelim W\bibinitperiod}}}%
      }
      \strng{namehash}{819197bfeff32a3f58d49b2a3eb0a580}
      \strng{fullhash}{819197bfeff32a3f58d49b2a3eb0a580}
      \strng{bibnamehash}{819197bfeff32a3f58d49b2a3eb0a580}
      \strng{authorbibnamehash}{819197bfeff32a3f58d49b2a3eb0a580}
      \strng{authornamehash}{819197bfeff32a3f58d49b2a3eb0a580}
      \strng{authorfullhash}{819197bfeff32a3f58d49b2a3eb0a580}
      \field{sortinit}{W}
      \field{sortinithash}{1af34bd8c148ffb32de1494636b49713}
      \field{labelnamesource}{author}
      \field{labeltitlesource}{title}
      \field{abstract}{In a plane, consider a sum of N two-dimensional vectors with random orientations. Use phasor notation, and let the phase of each vector be random. Assume N unit steps are taken in an arbitrary direction (i.e., with the angle theta uniformly distributed in [0,2pi) and not on a lattice), as illustrated above. The position z in the complex plane after N steps is then given by z=sum\_(j=1){\textasciicircum}Ne{\textasciicircum}(itheta\_j), (1) which has absolute square |z|{\textasciicircum}2 = sum\_(j=1){\textasciicircum}(N)e{\textasciicircum}(itheta\_j)sum\_(k=1){\textasciicircum}(N)e{\textasciicircum}(-itheta\_k)...}
      \field{langid}{english}
      \field{note}{Library Catalog: mathworld.wolfram.com Publisher: Wolfram Research, Inc.}
      \field{title}{Random Walk--2-Dimensional}
      \field{type}{Text}
      \field{urlday}{8}
      \field{urlmonth}{3}
      \field{urlyear}{2020}
      \field{urldateera}{ce}
      \verb{file}
      \verb Snapshot:C\:\\Users\\Sascha\\Zotero\\storage\\6PE3WZHK\\RandomWalk2-Dimensional.html:text/html
      \endverb
      \verb{urlraw}
      \verb https://mathworld.wolfram.com/RandomWalk2-Dimensional.html
      \endverb
      \verb{url}
      \verb https://mathworld.wolfram.com/RandomWalk2-Dimensional.html
      \endverb
      \warn{\item Datamodel: Entry 'weisstein_random_nodate' (references.bib): Field 'rights' invalid in data model - ignoring}
      \warn{\item Datamodel: Entry 'weisstein_random_nodate' (references.bib): Invalid field 'type' for entrytype 'online'}
      \warn{\item Datamodel: Entry 'weisstein_random_nodate' (references.bib): Missing mandatory field - one of 'date, year' must be defined}
    \endentry
  \enddatalist
\endrefsection
\endinput

