\relax 
\providecommand\hyper@newdestlabel[2]{}
\providecommand\HyperFirstAtBeginDocument{\AtBeginDocument}
\HyperFirstAtBeginDocument{\ifx\hyper@anchor\@undefined
\global\let\oldcontentsline\contentsline
\gdef\contentsline#1#2#3#4{\oldcontentsline{#1}{#2}{#3}}
\global\let\oldnewlabel\newlabel
\gdef\newlabel#1#2{\newlabelxx{#1}#2}
\gdef\newlabelxx#1#2#3#4#5#6{\oldnewlabel{#1}{{#2}{#3}}}
\AtEndDocument{\ifx\hyper@anchor\@undefined
\let\contentsline\oldcontentsline
\let\newlabel\oldnewlabel
\fi}
\fi}
\global\let\hyper@last\relax 
\gdef\HyperFirstAtBeginDocument#1{#1}
\providecommand\HyField@AuxAddToFields[1]{}
\providecommand\HyField@AuxAddToCoFields[2]{}
\citation{university_heidelberg}
\citation{blender}
\citation{blender}
\citation{blender_wiki}
\citation{optical_flow1}
\citation{optical_flow2}
\citation{optical_flow3}
\citation{optical_flow4}
\citation{optical_flow5}
\citation{light_field1}
\citation{light_field3}
\citation{light_field4}
\citation{light_field5}
\citation{light_field2}
\citation{light_field_camera1}
\citation{light_field_camera2}
\@writefile{toc}{\contentsline {section}{\numberline {I}Introduction}{1}{section.1}\protected@file@percent }
\@writefile{toc}{\contentsline {section}{\numberline {II}Optical Flow}{1}{section.2}\protected@file@percent }
\@writefile{toc}{\contentsline {section}{\numberline {III}Light Field}{1}{section.3}\protected@file@percent }
\citation{openexr}
\citation{mpi_sintel}
\citation{blender_python_api}
\@writefile{lof}{\contentsline {figure}{\numberline {1}{\ignorespaces Cube in motion (before: red, after: brown)}}{2}{figure.1}\protected@file@percent }
\newlabel{fig:1a}{{1}{2}{Cube in motion (before: red, after: brown)}{figure.1}{}}
\@writefile{lof}{\contentsline {figure}{\numberline {2}{\ignorespaces Optical Flow Field of cube in motion}}{2}{figure.2}\protected@file@percent }
\newlabel{fig:1b}{{2}{2}{Optical Flow Field of cube in motion}{figure.2}{}}
\@writefile{lof}{\contentsline {figure}{\numberline {3}{\ignorespaces Cube in motion with its optical flow field overlayed}}{2}{figure.3}\protected@file@percent }
\newlabel{fig:1c}{{3}{2}{Cube in motion with its optical flow field overlayed}{figure.3}{}}
\@writefile{toc}{\contentsline {section}{\numberline {IV}Blender Addon: Light Field}{2}{section.4}\protected@file@percent }
\@writefile{lof}{\contentsline {figure}{\numberline {4}{\ignorespaces Light field camera array}}{3}{figure.4}\protected@file@percent }
\newlabel{fig:2}{{4}{3}{Light field camera array}{figure.4}{}}
\@writefile{lof}{\contentsline {figure}{\numberline {5}{\ignorespaces Plot of rendered cubes}}{3}{figure.5}\protected@file@percent }
\newlabel{fig:3a}{{5}{3}{Plot of rendered cubes}{figure.5}{}}
\@writefile{lof}{\contentsline {figure}{\numberline {6}{\ignorespaces Plot of cube's depth data}}{3}{figure.6}\protected@file@percent }
\newlabel{fig:3b}{{6}{3}{Plot of cube's depth data}{figure.6}{}}
\@writefile{toc}{\contentsline {section}{\numberline {V}Blender Addon: Random Scene Generation}{3}{section.5}\protected@file@percent }
\@writefile{lof}{\contentsline {figure}{\numberline {7}{\ignorespaces Plot of cube's normal data}}{4}{figure.7}\protected@file@percent }
\newlabel{fig:3c}{{7}{4}{Plot of cube's normal data}{figure.7}{}}
\@writefile{lof}{\contentsline {figure}{\numberline {8}{\ignorespaces Plot of cube's optical flow data with Sintel's visualization}}{4}{figure.8}\protected@file@percent }
\newlabel{fig:3d}{{8}{4}{Plot of cube's optical flow data with Sintel's visualization}{figure.8}{}}
\@writefile{lof}{\contentsline {figure}{\numberline {9}{\ignorespaces Blender Addon generated City Scene}}{4}{figure.9}\protected@file@percent }
\newlabel{fig:4}{{9}{4}{Blender Addon generated City Scene}{figure.9}{}}
\@writefile{toc}{\contentsline {section}{\numberline {VI}Conclusion and Further Work}{4}{section.6}\protected@file@percent }
\bibcite{university_heidelberg}{1}
\bibcite{mpi_sintel}{2}
\bibcite{blender}{3}
\bibcite{blender_wiki}{4}
\bibcite{optical_flow1}{5}
\bibcite{optical_flow2}{6}
\bibcite{optical_flow3}{7}
\bibcite{optical_flow4}{8}
\bibcite{optical_flow5}{9}
\bibcite{light_field1}{10}
\bibcite{light_field2}{11}
\bibcite{light_field3}{12}
\bibcite{light_field4}{13}
\bibcite{light_field5}{14}
\bibcite{light_field_camera1}{15}
\bibcite{light_field_camera2}{16}
\bibcite{blender_python_api}{17}
\bibcite{openexr}{18}
\@writefile{toc}{\contentsline {section}{References}{5}{section*.1}\protected@file@percent }
