\BOOKMARK [1][-]{section.1}{Introduction}{}% 1
\BOOKMARK [1][-]{section.2}{Optical Flow}{}% 2
\BOOKMARK [1][-]{section.3}{Light Field}{}% 3
\BOOKMARK [1][-]{section.4}{Blender Addon: Light Field}{}% 4
\BOOKMARK [1][-]{section.5}{Blender Addon: Random Scene Generation}{}% 5
\BOOKMARK [1][-]{section.6}{Conclusion and Further Work}{}% 6
\BOOKMARK [1][-]{section*.1}{References}{}% 7
