\boolfalse {citerequest}\boolfalse {citetracker}\boolfalse {pagetracker}\boolfalse {backtracker}\relax 
\defcounter {refsection}{0}\relax 
\beamer@sectionintoc {1}{An Introduction}{2}{0}{1}
\defcounter {refsection}{0}\relax 
\beamer@subsectionintoc {1}{1}{Motivation}{3}{0}{1}
\defcounter {refsection}{0}\relax 
\beamer@subsectionintoc {1}{2}{Outline}{6}{0}{1}
\defcounter {refsection}{0}\relax 
\beamer@sectionintoc {2}{Optical Flow}{7}{0}{2}
\defcounter {refsection}{0}\relax 
\beamer@sectionintoc {3}{Light Field}{10}{0}{3}
\defcounter {refsection}{0}\relax 
\beamer@sectionintoc {4}{Apply Findings in Blender}{15}{0}{4}
\defcounter {refsection}{0}\relax 
\beamer@sectionintoc {5}{Work Findings into Blender Addon Tool}{21}{0}{5}
\defcounter {refsection}{0}\relax 
\beamer@sectionintoc {6}{Conclusion}{24}{0}{6}
